%YAML 1.1
%TAG !u! tag:unity3d.com,2011:
--- !u!114 &11400000
MonoBehaviour:
  m_ObjectHideFlags: 0
  m_CorrespondingSourceObject: {fileID: 0}
  m_PrefabInternal: {fileID: 0}
  m_GameObject: {fileID: 0}
  m_Enabled: 1
  m_EditorHideFlags: 0
  m_Script: {fileID: 11500000, guid: c038c960b0ce7624993fdb8e9953dba8, type: 3}
  m_Name: XBox360Mac
  m_EditorClassIdentifier: 
  RegEx: 360
  Platform: 4
  Priority: 1000
  UseOnce: 0
  Replacable: 0
  Axes:
  - Axis: 0
    Alternative: 0
    Invert: 0
    Type: 0
    Min: 0
    Max: 1
    Key1: 0
    Key2: 0
  - Axis: 1
    Alternative: 0
    Invert: 0
    Type: 0
    Min: 0
    Max: 1
    Key1: 0
    Key2: 0
  - Axis: 2
    Alternative: 0
    Invert: 0
    Type: 0
    Min: 0
    Max: 1
    Key1: 0
    Key2: 0
  - Axis: 3
    Alternative: 0
    Invert: 0
    Type: 0
    Min: 0
    Max: 1
    Key1: 0
    Key2: 0
  - Axis: 4
    Alternative: 0
    Invert: 0
    Type: 0
    Min: 0
    Max: 1
    Key1: 0
    Key2: 0
  - Axis: 5
    Alternative: 0
    Invert: 0
    Type: 0
    Min: 0
    Max: 1
    Key1: 0
    Key2: 0
  - Axis: 7
    Alternative: 8
    Invert: 0
    Type: 4
    Min: 0
    Max: 0
    Key1: 0
    Key2: 0
  - Axis: 6
    Alternative: 5
    Invert: 0
    Type: 4
    Min: 0
    Max: 0
    Key1: 0
    Key2: 0
  Buttons:
  - Button: 16
    Key: 0
    Type: 0
  - Button: 17
    Key: 0
    Type: 0
  - Button: 18
    Key: 0
    Type: 0
  - Button: 19
    Key: 0
    Type: 0
  - Button: 10
    Key: 0
    Type: 0
  - Button: 9
    Key: 0
    Type: 0
  - Button: 13
    Key: 0
    Type: 0
  - Button: 14
    Key: 0
    Type: 0
  - Button: 11
    Key: 0
    Type: 0
  - Button: 12
    Key: 0
    Type: 0
